%YAML 1.1
%TAG !u! tag:unity3d.com,2011:
--- !u!21 &2100000
Material:
  serializedVersion: 3
  m_ObjectHideFlags: 0
  m_PrefabParentObject: {fileID: 0}
  m_PrefabInternal: {fileID: 0}
  m_Name: proto_alpha_d
  m_Shader: {fileID: 4, guid: 0000000000000000f000000000000000, type: 0}
  m_ShaderKeywords: []
  m_CustomRenderQueue: -1
  m_SavedProperties:
    serializedVersion: 2
    m_TexEnvs:
      data:
        first:
          name: _MainTex
        second:
          m_Texture: {fileID: 2800000, guid: 3621cc79315d75d4f85ea9d859c09a94, type: 3}
          m_Scale: {x: 1, y: 1}
          m_Offset: {x: 0, y: 0}
      data:
        first:
          name: _BumpMap
        second:
          m_Texture: {fileID: 2800000, guid: e465bbf94f039b949a50a6cb1f67be1b, type: 3}
          m_Scale: {x: 1, y: 1}
          m_Offset: {x: 0, y: 0}
    m_Floats:
      data:
        first:
          name: _Shininess
        second: .179468289
    m_Colors:
      data:
        first:
          name: _Color
        second: {r: .649253726, g: .649253726, b: .649253726, a: 1}
      data:
        first:
          name: _SpecColor
        second: {r: .940298498, g: .940298498, b: .940298498, a: 1}
--- !u!1002 &2100001
EditorExtensionImpl:
  serializedVersion: 6
